ĐẠI HỌC QUỐC GIA HÀ NỘI,,,CỘNG HÒA XÃ HỘI CHỦ NGHĨA VIỆT NAM,,
TRƯỜNG ĐẠI HỌC CÔNG NGHỆ,,,Độc lập - Tự do - Hạnh phúc,,
,,,,,
DANH SÁCH SINH VIÊN THEO LỚP MÔN HỌC,,,,,
Năm học 2018-2019 học kỳ I,,,,,
,,,,,
Giảng viên:,,Lê Đình Thanh,Mã cán bộ:,25212211,
"Thứ, Tiết:",,"5, 1 - 2",,Giảng đường:,304-G2
Lớp môn học:,,INT3216,,Số tín chỉ:,3
Môn học:,,"Phan tich, danh gia hieu nang he thong",,,
STT,Mã SV,Họ và tên,Ngày sinh,Lớp khóa học,Ghi chú
1,16000001,Phạm Công Anh,14/01/1998,QH-2016-I/CQ-C-C,
2,16000002,Phạm Tuấn Anh,10/01/1998,QH-2016-I/CQ-N,
3,16000003,Hoàng Văn Chính,25/01/1996,QH-2016-I/CQ-C-C,
4,16000004,Đinh Thị Thùy Dung,13/10/1998,QH-2016-I/CQ-C-A-C,
5,16000005,Đậu Trọng Dũng,07/01/1998,QH-2016-I/CQ-C-B,
6,16000006,Đỗ Đức Dũng,19/12/1998,QH-2016-I/CQ-C-B,
7,16000007,Nguyễn Khánh Duy,07/12/1998,QH-2016-I/CQ-T,
8,16000008,Phạm Văn Duy,12/12/1998,QH-2016-I/CQ-T,
9,16000009,Nguyễn Bình Dương,20/09/1998,QH-2016-I/CQ-C-B,
10,16000010,Hoàng Văn Đại,11/03/1996,QH-2016-I/CQ-C-C,
11,16000011,Nguyễn Thành Đại,10/05/1998,QH-2016-I/CQ-C-B,
12,16000012,Lê Quang Đạo,24/11/1998,QH-2016-I/CQ-C-C,
13,16000013,Đỗ Thành Đạt,16/12/1998,QH-2016-I/CQ-N,
14,16000014,Kiều Quốc Đạt,21/12/1998,QH-2016-I/CQ-C-C,
15,16000015,Lê Quang Đạt,06/02/1998,QH-2016-I/CQ-N,
16,16000016,Phan Minh Đức,20/12/1998,QH-2016-I/CQ-T,
17,16000017,Trương Hà Anh Đức,06/04/1997,QH-2016-I/CQ-C-B,
18,16000018,Dương Thanh Hải,01/03/1998,QH-2016-I/CQ-C-C,
19,16000019,Lê Viết Hải,09/09/1998,QH-2016-I/CQ-C-B,
20,16000020,Đoàn Trung Hiếu,26/09/1998,QH-2016-I/CQ-T,
21,16000021,Đỗ Minh Hiếu,03/10/1998,QH-2016-I/CQ-N,
22,16000022,Hà Minh Hiếu,14/09/1998,QH-2016-I/CQ-C-C,
23,16000023,Hoàng Minh Hiếu,21/09/1998,QH-2016-I/CQ-C-C,
24,16000024,Lê Trung Hiếu,23/01/1998,QH-2016-I/CQ-C-C,
25,16000025,Nguyễn Đức Hoàng,13/06/1998,QH-2016-I/CQ-C-B,
26,16000026,Nguyễn Minh Hoàng,17/12/1998,QH-2016-I/CQ-C-C,
27,16000027,Nguyễn Xuân Hoàng,01/05/1995,QH-2013-I/CQ-C-C,
28,16000028,Vũ Huy Hoàng,27/07/1997,QH-2016-I/CQ-C-C,
29,16000029,Trần Đức Học,11/02/1997,QH-2016-I/CQ-C-C,
30,16000030,Nguyễn Thị Hợp,01/04/1998,QH-2016-I/CQ-T,
